{
    "name": "AFuncionales",
    "alias": "afuncionales",
    "description": "",
    "keywords": [],
    "active": 1,
    "order": 0,
    "providers": [
        "Modules\\AFuncionales\\Providers\\AFuncionalesServiceProvider"
    ],
    "aliases": {},
    "files": [
        "start.php"
    ],
    "requires": []
}
