{
    "name": "JornadasMedicas",
    "alias": "jornadasmedicas",
    "description": "",
    "keywords": [],
    "active": 1,
    "order": 0,
    "providers": [
        "Modules\\JornadasMedicas\\Providers\\JornadasMedicasServiceProvider"
    ],
    "aliases": {},
    "files": [
        "start.php"
    ],
    "requires": []
}
