{
    "name": "TAESIR",
    "alias": "taesir",
    "description": "",
    "keywords": [],
    "active": 1,
    "order": 0,
    "providers": [
        "Modules\\TAESIR\\Providers\\TAESIRServiceProvider"
    ],
    "aliases": {},
    "files": [
        "start.php"
    ],
    "requires": []
}
