{
    "name": "Panaderia",
    "alias": "panaderia",
    "description": "",
    "keywords": [],
    "active": 1,
    "order": 0,
    "providers": [
        "Modules\\Panaderia\\Providers\\PanaderiaServiceProvider"
    ],
    "aliases": {},
    "files": [
        "start.php"
    ],
    "requires": []
}
